==================SUMMARY==================
Ontology file:             universityAUX.owl
Query:                     Q(X0,X1)  <-  Course(X1) ^ Person(X0) ^ teacherOf(X0,X1)
Number of assertions:      137
Number of concept symbols: 35
Number of role symbols:    31
Running time:              156 milliseconds 
Size of the rewriting (queries):     1
Size of the rewriting (symbols):     30
0: Q(X0,X1)  <-  teacherOf(X0,X1)
==================SUMMARY==================
