==================SUMMARY==================
Ontology file:             path5.owl
Query:                     Q(X0)  <-  edge(X0,X1) ^ edge(X1,X2) ^ edge(X2,X3) ^ edge(X3,X4)
Number of assertions:      10
Number of concept symbols: 6
Number of role symbols:    1
Running time:              1045 milliseconds 
Size of the rewriting (queries):     15
Size of the rewriting (symbols):     708
0: Q(X0)  <-  Path1(X1) ^ edge(X0,X2) ^ edge(X2,X3) ^ edge(X3,X1)
1: Q(X0)  <-  Path2(X1) ^ edge(X0,X2) ^ edge(X2,X1)
2: Q(X0)  <-  Path2(X1) ^ edge(X0,X2) ^ edge(X2,X3) ^ edge(X3,X1)
3: Q(X0)  <-  Path3(X1) ^ edge(X0,X1)
4: Q(X0)  <-  Path3(X1) ^ edge(X0,X2) ^ edge(X2,X1)
5: Q(X0)  <-  Path3(X1) ^ edge(X0,X2) ^ edge(X2,X3) ^ edge(X3,X1)
6: Q(X0)  <-  Path4(X0)
7: Q(X0)  <-  Path4(X1) ^ edge(X0,X1)
8: Q(X0)  <-  Path4(X1) ^ edge(X0,X2) ^ edge(X2,X1)
9: Q(X0)  <-  Path4(X1) ^ edge(X0,X2) ^ edge(X2,X3) ^ edge(X3,X1)
10: Q(X0)  <-  Path5(X0)
11: Q(X0)  <-  Path5(X1) ^ edge(X0,X1)
12: Q(X0)  <-  Path5(X1) ^ edge(X0,X2) ^ edge(X2,X1)
13: Q(X0)  <-  Path5(X1) ^ edge(X0,X2) ^ edge(X2,X3) ^ edge(X3,X1)
14: Q(X0)  <-  edge(X0,X1) ^ edge(X1,X2) ^ edge(X2,X3) ^ edge(X3,X4)
==================SUMMARY==================
